{
  "type": "minecraft:crafting_shaped",
  "pattern": [
    "X X",
    "X X"
  ],
  "key": {
    "X": {
      "item": "qforgemod:amber"
    }
  },
  "result": {
    "item": "qforgemod:amber_boots",
    "count": 1
  }
}