{
  "type": "minecraft:crafting_shaped",
  "pattern": [
    "c c",
    "c c"
  ],
  "key": {
    "c": {
      "item": "qforgemod:copper_ingot"
    }
  },
  "result": {
    "item": "qforgemod:copper_boots"
  }
}
