{
  "type": "minecraft:crafting_shaped",
  "pattern": [
    "C  ",
    "C  ",
    "DDD"
  ],
  "key": {
    "C": {
      "item": "minecraft:cobblestone"
    },
    "D": {
      "item": "minecraft:dirt"
    }
  },
  "result": {
    "item": "qforgemod:gravestone",
    "count": 1
  },
  "mirrored": true
}