{
  "type": "minecraft:crafting_shaped",
  "pattern": [
    "XX",
    "#X",
    "# "
  ],
  "key": {
    "X": {
      "item": "qforgemod:infinity_ingot"
    },
    "#": {
      "tag": "sticks"
    }
  },
  "result": {
    "item": "qforgemod:infinity_axe"
  }
}
