{
  "type": "minecraft:crafting_shaped",
  "pattern": [
    "XX",
    "X/",
    " /"
  ],
  "key": {
    "X": {
      "item": "qforgemod:peridot"
    },
    "/": {
      "item": "minecraft:stick"
    }
  },
  "result": {
    "item": "qforgemod:peridot_axe",
    "count": 1
  }
}