{
  "type": "minecraft:crafting_shaped",
  "pattern": [
    "XX",
    "/X",
    "/ "
  ],
  "key": {
    "X": {
      "item": "qforgemod:redstone"
    },
    "/": {
      "item": "minecraft:stick"
    }
  },
  "result": {
    "item": "qforgemod:redstone_axe",
    "count": 1
  }
}