{
  "type": "minecraft:crafting_shaped",
  "pattern": [
    "XX",
    "/ ",
    "/ "
  ],
  "key": {
    "X": {
      "item": "qforgemod:silver_ingot"
    },
    "/": {
      "item": "minecraft:stick"
    }
  },
  "result": {
    "item": "qforgemod:silver_hoe"
  }
}
