{
  "type": "minecraft:crafting_shaped",
  "pattern": [
    "XXX",
    " # ",
    " # "
  ],
  "key": {
    "X": {
      "item": "qforgemod:steel_ingot"
    },
    "#": {
      "tag": "sticks"
    }
  },
  "result": {
    "item": "qforgemod:steel_pickaxe"
  }
}
