{
  "type": "minecraft:crafting_shaped",
  "pattern": [
    "XXX",
    "X X"
  ],
  "key": {
    "X": {
      "item": "qforgemod:topaz"
    }
  },
  "result": {
    "item": "qforgemod:topaz_helmet",
    "count": 1
  }
}