{
  "type": "minecraft:crafting_shaped",
  "pattern": [
    "XX",
    "X#",
    " #"
  ],
  "key": {
    "X": {
      "item": "qforgemod:ultrinium_ingot"
    },
    "#": {
      "tag": "sticks"
    }
  },
  "result": {
    "item": "qforgemod:ultrinium_axe"
  }
}
