{
  "parent": "qforgemod:custom/bar_panel_bottom",
  "textures": {
    "particle": "qforgemod:block/bar_panel_side",
    "side": "qforgemod:block/bar_panel_side",
    "end": "qforgemod:block/bar_panel_end"
  }
}