{
	"credit": "Made with Blockbench",
	"parent": "block/block",
	"ambientocclusion": false,
	"textures": {
		"0": "qforgemod:block/wire",
		"particle": "qforgemod:block/wire"
	},
	"elements": [
		{
			"from": [6, 6, 0],
			"to": [10, 10, 6],
			"faces": {
				"north": {"uv": [15, 13, 16, 14], "texture": "#0"},
				"east": {"uv": [0, 4, 6, 8], "texture": "#0"},
				"west": {"uv": [0, 4, 6, 8], "rotation": 180, "texture": "#0"},
				"up": {"uv": [0, 4, 6, 8], "rotation": 270, "texture": "#0"},
				"down": {"uv": [0, 4, 6, 8], "rotation": 90, "texture": "#0"}
			}
		}
	]
}