{
  "parent": "minecraft:recipes/root",
  "rewards": {
    "recipes": [
      "minecraft:platinum_ingot_from_platinum_block"
    ]
  },
  "criteria": {
    "has_platinum_block": {
      "trigger": "minecraft:inventory_changed",
      "conditions": {
        "items": [
          {
            "item": "minecraft:platinum_block"
          }
        ]
      }
    },
    "has_the_recipe": {
      "trigger": "minecraft:recipe_unlocked",
      "conditions": {
        "recipe": "qforgemod:platinum_ingot_from_platinum_block"
      }
    }
  },
  "requirements": [
    [
      "has_platinum_block",
      "has_the_recipe"
    ]
  ]
}