{
  "parent": "minecraft:recipes/root",
  "rewards": {
    "recipes": [
      "qforgemod:steel_nugget_from_smelting"
    ]
  },
  "criteria": {
    "has_steel_pickaxe": {
      "trigger": "minecraft:inventory_changed",
      "conditions": {
        "items": [
          {
            "item": "qforgemod:steel_pickaxe"
          }
        ]
      }
    },
    "has_steel_shovel": {
      "trigger": "minecraft:inventory_changed",
      "conditions": {
        "items": [
          {
            "item": "qforgemod:steel_shovel"
          }
        ]
      }
    },
    "has_steel_axe": {
      "trigger": "minecraft:inventory_changed",
      "conditions": {
        "items": [
          {
            "item": "qforgemod:steel_axe"
          }
        ]
      }
    },
    "has_steel_hoe": {
      "trigger": "minecraft:inventory_changed",
      "conditions": {
        "items": [
          {
            "item": "qforgemod:steel_hoe"
          }
        ]
      }
    },
    "has_steel_sword": {
      "trigger": "minecraft:inventory_changed",
      "conditions": {
        "items": [
          {
            "item": "qforgemod:steel_sword"
          }
        ]
      }
    },
    "has_steel_helmet": {
      "trigger": "minecraft:inventory_changed",
      "conditions": {
        "items": [
          {
            "item": "qforgemod:steel_helmet"
          }
        ]
      }
    },
    "has_steel_chestplate": {
      "trigger": "minecraft:inventory_changed",
      "conditions": {
        "items": [
          {
            "item": "qforgemod:steel_chestplate"
          }
        ]
      }
    },
    "has_steel_leggings": {
      "trigger": "minecraft:inventory_changed",
      "conditions": {
        "items": [
          {
            "item": "qforgemod:steel_leggings"
          }
        ]
      }
    },
    "has_steel_boots": {
      "trigger": "minecraft:inventory_changed",
      "conditions": {
        "items": [
          {
            "item": "qforgemod:steel_boots"
          }
        ]
      }
    },
    "has_steel_horse_armor": {
      "trigger": "minecraft:inventory_changed",
      "conditions": {
        "items": [
          {
            "item": "qforgemod:steel_horse_armor"
          }
        ]
      }
    },
    "has_chainmail_helmet": {
      "trigger": "minecraft:inventory_changed",
      "conditions": {
        "items": [
          {
            "item": "minecraft:chainmail_helmet"
          }
        ]
      }
    },
    "has_chainmail_chestplate": {
      "trigger": "minecraft:inventory_changed",
      "conditions": {
        "items": [
          {
            "item": "minecraft:chainmail_chestplate"
          }
        ]
      }
    },
    "has_chainmail_leggings": {
      "trigger": "minecraft:inventory_changed",
      "conditions": {
        "items": [
          {
            "item": "minecraft:chainmail_leggings"
          }
        ]
      }
    },
    "has_chainmail_boots": {
      "trigger": "minecraft:inventory_changed",
      "conditions": {
        "items": [
          {
            "item": "minecraft:chainmail_boots"
          }
        ]
      }
    },
    "has_the_recipe": {
      "trigger": "minecraft:recipe_unlocked",
      "conditions": {
        "recipe": "qforgemod:steel_nugget_from_smelting"
      }
    }
  },
  "requirements": [
    [
      "has_steel_pickaxe",
      "has_steel_shovel",
      "has_steel_axe",
      "has_steel_hoe",
      "has_steel_sword",
      "has_steel_helmet",
      "has_steel_chestplate",
      "has_steel_leggings",
      "has_steel_boots",
      "has_steel_horse_armor",
      "has_chainmail_helmet",
      "has_chainmail_chestplate",
      "has_chainmail_leggings",
      "has_chainmail_boots",
      "has_the_recipe"
    ]
  ]
}