{
  "type": "minecraft:block",
  "pools": [
    {
      "rolls": 1,
      "entries": [
        {
          "type": "minecraft:item",
          "functions": [
            {
              "function": "minecraft:set_count",
              "count": 3
            },
            {
              "function": "minecraft:explosion_decay"
            }
          ],
          "name": "qforgemod:eucalyptus_plank"
        },
        {
          "functions": [
            {
              "function": "minecraft:set_count",
              "count": 6
            },
            {
              "function": "minecraft:explosion_decay"
            }
          ],
          "type": "minecraft:item",
          "name": "minecraft:stick"
        }
      ]
    }
  ]
}