{
  "values": [
    "#forge:ingots/aluminum",
    "#forge:ingots/aluminum_steel",
    "#forge:ingots/bismuth",
    "#forge:ingots/bismuth_brass",
    "#forge:ingots/bismuth_steel",
    "#forge:ingots/brass",
    "#forge:ingots/bronze",
    "#forge:ingots/compressed_iron",
    "#forge:ingots/copper",
    "#forge:ingots/electrum",
    "#forge:ingots/enderium",
    "#forge:ingots/gold",
    "#forge:ingots/infinity",
    "#forge:ingots/invar",
    "#forge:ingots/iron",
    "#forge:ingots/lead",
    "#forge:ingots/lumium",
    "#forge:ingots/nickel",
    "#forge:ingots/platinum",
    "#forge:ingots/redstone_alloy",
    "#forge:ingots/refined_iron",
    "#forge:ingots/signalum",
    "#forge:ingots/silver",
    "#forge:ingots/steel",
    "#forge:ingots/tin",
    "#forge:ingots/tungsten",
    "#forge:ingots/ultrinium",
    "#forge:ingots/uranium",
    "#forge:ingots/zinc"
  ]
}